<svg width="32" height="32" viewBox="0 0 32 32" fill="none" xmlns="http://www.w3.org/2000/svg">
<circle cx="16" cy="16" r="16" fill="#E8AF3C"/>
<circle cx="16" cy="16" r="16" fill="url(#paint0_linear_108_11816)" fill-opacity="0.4"/>
<path d="M15.1043 8.89893C15.4711 8.15568 16.531 8.15568 16.8978 8.89893L18.8282 12.8104L23.1448 13.4377C23.9651 13.5568 24.2926 14.5648 23.699 15.1434L20.5755 18.188L21.3129 22.4872C21.453 23.3041 20.5956 23.927 19.8619 23.5414L16.0011 21.5116L12.1402 23.5414C11.4066 23.9271 10.5491 23.3041 10.6892 22.4872L11.4266 18.188L8.30308 15.1434C7.70956 14.5648 8.03708 13.5568 8.8573 13.4377L13.1739 12.8104L15.1043 8.89893ZM16.0011 9.34149L14.0706 13.253C13.925 13.5481 13.6434 13.7527 13.3177 13.8L9.00109 14.4273L12.1246 17.4719C12.3603 17.7017 12.4678 18.0327 12.4122 18.3571L11.6748 22.6562L15.5357 20.6264C15.827 20.4733 16.1751 20.4733 16.4664 20.6264L20.3273 22.6562L19.5899 18.3571C19.5343 18.0327 19.6418 17.7017 19.8775 17.4719L23.001 14.4273L18.6844 13.8C18.3587 13.7527 18.0772 13.5481 17.9315 13.253L16.0011 9.34149Z" fill="white"/>
<defs>
<linearGradient id="paint0_linear_108_11816" x1="16" y1="-19.5" x2="46.6483" y2="5.64735" gradientUnits="userSpaceOnUse">
<stop stop-color="white" stop-opacity="0.46"/>
<stop offset="0.512352" stop-color="white" stop-opacity="0.69"/>
<stop offset="1" stop-color="white" stop-opacity="0"/>
</linearGradient>
</defs>
</svg>
