<svg width="48" height="48" viewBox="0 0 48 48" fill="none" xmlns="http://www.w3.org/2000/svg">
<path d="M30.2409 43.4508H17.7881L22.7992 21.7535H24.935L30.2409 43.4508Z" fill="#B5EFFF"/>
<path d="M30.2408 43.4508H24.0468V21.7535H24.9349L30.2408 43.4508Z" fill="#80DBFF"/>
<path d="M8.62595 25.9857C7.9096 25.9857 7.32886 25.405 7.32886 24.6886V20.251C7.32886 19.5346 7.9096 18.9539 8.62595 18.9539C9.3423 18.9539 9.92304 19.5346 9.92304 20.251V24.6886C9.92304 25.405 9.3423 25.9857 8.62595 25.9857Z" fill="#B5EFFF"/>
<path d="M39.3741 21.8645C38.6578 21.8645 38.077 21.2838 38.077 20.5674V15.7839C38.077 15.0676 38.6578 14.4868 39.3741 14.4868C40.0905 14.4868 40.6712 15.0676 40.6712 15.7839V20.5674C40.6711 21.2838 40.0904 21.8645 39.3741 21.8645Z" fill="#80DBFF"/>
<path d="M32.0991 42.1539C32.0991 42.8708 31.5189 43.451 30.802 43.451H17.2044C16.4876 43.451 15.9073 42.8708 15.9073 42.1539C15.9073 41.4379 16.4876 40.8568 17.2044 40.8568H30.8021C31.5189 40.8568 32.0991 41.438 32.0991 42.1539Z" fill="#5A6384"/>
<path d="M8.62583 8.01624C4.89515 8.01624 1.85999 11.0515 1.85999 14.7821C1.85999 18.5127 4.89515 21.5479 8.62583 21.5479C12.3565 21.5479 15.3917 18.5127 15.3917 14.7821C15.3917 11.0515 12.3566 8.01624 8.62583 8.01624Z" fill="#FFB13B"/>
<path d="M6.36096 16.948C6.36096 16.9325 6.36606 16.9042 6.37644 16.8629L7.81563 12.1428C7.85688 12.0139 7.95106 11.9145 8.09809 11.845C8.24511 11.7753 8.41393 11.7405 8.60488 11.7405C8.79567 11.7405 8.96466 11.7753 9.11168 11.845C9.25871 11.9147 9.3528 12.014 9.39423 12.1428L10.8411 16.8629C10.8514 16.9043 10.8566 16.9326 10.8566 16.948C10.8566 17.0823 10.7727 17.1983 10.6051 17.2961C10.4374 17.3942 10.2633 17.4432 10.0828 17.4432C9.8609 17.4432 9.72944 17.3684 9.68827 17.2187L9.42519 16.2515H7.79236L7.52928 17.2188C7.48794 17.3684 7.35631 17.4433 7.13465 17.4433C6.95399 17.4433 6.77998 17.3943 6.61237 17.2962C6.44477 17.1983 6.36096 17.0823 6.36096 16.948ZM8.04006 15.3231H9.1698L8.60497 13.2494L8.04006 15.3231Z" fill="white"/>
<path d="M39.374 3.54919C35.6432 3.54919 32.6082 6.58445 32.6082 10.315C32.6082 14.0459 35.6434 17.081 39.374 17.081C43.1049 17.081 46.14 14.0457 46.14 10.315C46.14 6.58436 43.1047 3.54919 39.374 3.54919Z" fill="#F45607"/>
<path d="M37.5677 12.7718V7.85045C37.5677 7.73188 37.6193 7.6403 37.7226 7.57569C37.8256 7.51126 37.9495 7.479 38.0939 7.479H39.6801C40.7119 7.479 41.2277 7.93824 41.2277 8.85644C41.2277 9.47541 41.0084 9.88042 40.57 10.0713C40.8331 10.1694 41.0316 10.31 41.1658 10.493C41.3 10.6762 41.367 10.9483 41.367 11.3093V11.4718C41.367 12.0496 41.2264 12.4713 40.9453 12.737C40.6641 13.0028 40.2863 13.1354 39.8118 13.1354H38.094C37.934 13.1354 37.8064 13.0994 37.711 13.0271C37.6154 12.9549 37.5677 12.8698 37.5677 12.7718ZM38.7671 9.60704H39.5796C39.719 9.60704 39.8272 9.5542 39.9046 9.44834C39.982 9.34266 40.0207 9.21751 40.0207 9.07308C40.0207 8.92874 39.982 8.80222 39.9046 8.69394C39.8272 8.58557 39.719 8.53143 39.5796 8.53143H38.7671V9.60704ZM38.7671 12.0832H39.5409C39.9535 12.0832 40.1599 11.8459 40.1599 11.3713V11.2475C40.1599 10.7729 39.9535 10.5356 39.5409 10.5356H38.7671V12.0832Z" fill="white"/>
<path d="M43.7822 21.5694L24.0469 24.142L4.64617 26.6712C4.58909 26.679 4.53288 26.6825 4.47666 26.6825C3.83504 26.6825 3.2773 26.206 3.19168 25.5531C3.09914 24.8423 3.5998 24.1912 4.31061 24.0987L24.0469 21.5262L43.4476 18.9969C44.1575 18.9043 44.8086 19.405 44.9011 20.1158C44.9937 20.8258 44.4931 21.477 43.7822 21.5694Z" fill="#5A6384"/>
<path d="M32.099 42.1538C32.099 42.8707 31.5187 43.4509 30.8019 43.4509H24.0468V40.8568H30.8019C31.5187 40.8567 32.099 41.4379 32.099 42.1538Z" fill="#445175"/>
<path d="M43.7821 21.5693L24.0468 24.1419V21.5262L43.4474 18.9969C44.1574 18.9043 44.8085 19.405 44.901 20.1158C44.9936 20.8257 44.493 21.4769 43.7821 21.5693Z" fill="#445175"/>
</svg>
