<svg width="20" height="20" viewBox="0 0 20 20" fill="none" xmlns="http://www.w3.org/2000/svg">
<g opacity="0.5">
<circle cx="10" cy="10" r="9.5" stroke="black"/>
<path fill-rule="evenodd" clip-rule="evenodd" d="M11.1601 6.71017C11.9949 6.71017 12.6717 6.08545 12.6717 5.31482C12.6717 4.54419 11.9949 3.91948 11.1601 3.91948C10.3252 3.91948 9.64844 4.54419 9.64844 5.31482C9.64844 6.08545 10.3252 6.71017 11.1601 6.71017ZM7.32422 9.35698L7.46957 8.65931C8.09941 8.3783 9.54515 7.87442 10.2893 8.10698C11.2196 8.39768 12.0626 8.74652 11.4521 11.1012C11.1804 12.1492 11.0008 12.7539 10.8852 13.1431C10.7411 13.6284 10.6963 13.7791 10.6963 14.0372C10.6963 14.0653 10.6961 14.0936 10.6959 14.122C10.6926 14.5637 10.6891 15.0256 11.4812 15.0256C12.1556 14.9558 12.4599 14.8221 12.5277 14.764L12.3824 15.5198C12.3228 15.54 12.263 15.5605 12.203 15.581C11.2304 15.9137 10.2058 16.2642 9.22904 15.9701C8.60724 15.7829 8.10098 15.3576 8.13817 14.5023C8.18468 13.4791 8.73895 11.4985 9.01027 10.6361C9.13623 10.1419 9.21957 9.1535 8.54515 9.1535C7.87073 9.1535 7.45019 9.28915 7.32422 9.35698Z" fill="black"/>
</g>
</svg>
