<svg width="26" height="22" viewBox="0 0 26 22" fill="none" xmlns="http://www.w3.org/2000/svg">
<path d="M5.17361 0.111145H20.8264C23.1852 0.111145 25.1129 1.95743 25.243 4.28374L25.25 4.53476V17.4653C25.25 19.8242 23.4037 21.7518 21.0774 21.8819L20.8264 21.8889H5.17361C2.81476 21.8889 0.887138 20.0426 0.757003 17.7163L0.75 17.4653V4.53476C0.75 2.17591 2.59629 0.248282 4.92259 0.118147L5.17361 0.111145H20.8264H5.17361ZM20.8264 2.15281H5.17361C3.92388 2.15281 2.89893 3.11527 2.79956 4.3394L2.79167 4.53476V17.4653C2.79167 18.715 3.75412 19.74 4.97826 19.8394L5.17361 19.8473H20.8264C22.0761 19.8473 23.1011 18.8848 23.2004 17.6607L23.2083 17.4653V4.53476C23.2083 3.28502 22.2459 2.26008 21.0217 2.16071L20.8264 2.15281ZM10.3496 7.71351C10.499 7.41468 10.8386 7.27382 11.1484 7.36426L11.2627 7.40916L17.227 10.3913C17.3587 10.4572 17.4655 10.564 17.5314 10.6957C17.6808 10.9945 17.5897 11.3507 17.3315 11.5442L17.227 11.6087L11.2627 14.5909C11.1682 14.6382 11.064 14.6628 10.9583 14.6628C10.6242 14.6628 10.3464 14.422 10.2887 14.1045L10.2778 13.9822V8.01786C10.2778 7.91221 10.3024 7.80801 10.3496 7.71351Z" fill="#A13737"/>
</svg>
